^C:\Users\jarkk\GITREPOS\unreal-engine-cplusplus-developer\section02\Section02\TripleX\TripleX.vcxproj
C:\Users\jarkk\GITREPOS\unreal-engine-cplusplus-developer\section02\Section02\x64\Release\TripleX.ipdb
C:\Users\jarkk\GITREPOS\unreal-engine-cplusplus-developer\section02\Section02\x64\Release\TripleX.iobj
