^C:\Users\jarkk\GITREPOS\unreal-engine-cplusplus-developer\section02\Section02\FirstProgram\FirstProgram.vcxproj
C:\Users\jarkk\GITREPOS\unreal-engine-cplusplus-developer\section02\Section02\x64\Release\FirstProgram.ipdb
C:\Users\jarkk\GITREPOS\unreal-engine-cplusplus-developer\section02\Section02\x64\Release\FirstProgram.iobj
