^C:\USERS\JARKKO\GITREPOS\UNREAL-ENGINE-CPLUSPLUS-DEVELOPER\SECTION02\INCUDEANDNAMESPACE\DEBUG\MAIN.OBJ
C:\USERS\JARKKO\GITREPOS\UNREAL-ENGINE-CPLUSPLUS-DEVELOPER\SECTION02\DEBUG\INCUDEANDNAMESPACE.EXE
C:\USERS\JARKKO\GITREPOS\UNREAL-ENGINE-CPLUSPLUS-DEVELOPER\SECTION02\DEBUG\INCUDEANDNAMESPACE.ILK
C:\USERS\JARKKO\GITREPOS\UNREAL-ENGINE-CPLUSPLUS-DEVELOPER\SECTION02\DEBUG\INCUDEANDNAMESPACE.PDB
