^C:\USERS\JARKK\GITREPOS\UNREAL-ENGINE-CPLUSPLUS-DEVELOPER\SECTION02\SECTION02\HELLO\PCH.CPP
/c /Zi /nologo /W3 /WX- /diagnostics:classic /sdl /O2 /Oi /GL /D NDEBUG /D _CONSOLE /D _UNICODE /D UNICODE /Gm- /EHsc /MD /GS /Gy /fp:precise /permissive- /Zc:wchar_t /Zc:forScope /Zc:inline /Yc"pch.h" /Fp"X64\RELEASE\HELLO.PCH" /Fo"X64\RELEASE\\" /Fd"X64\RELEASE\VC141.PDB" /Gd /TP /FC C:\USERS\JARKK\GITREPOS\UNREAL-ENGINE-CPLUSPLUS-DEVELOPER\SECTION02\SECTION02\HELLO\PCH.CPP
^C:\USERS\JARKK\GITREPOS\UNREAL-ENGINE-CPLUSPLUS-DEVELOPER\SECTION02\SECTION02\HELLO\HELLO.CPP
/c /Zi /nologo /W3 /WX- /diagnostics:classic /sdl /O2 /Oi /GL /D NDEBUG /D _CONSOLE /D _UNICODE /D UNICODE /Gm- /EHsc /MD /GS /Gy /fp:precise /permissive- /Zc:wchar_t /Zc:forScope /Zc:inline /Yu"pch.h" /Fp"X64\RELEASE\HELLO.PCH" /Fo"X64\RELEASE\\" /Fd"X64\RELEASE\VC141.PDB" /Gd /TP /FC C:\USERS\JARKK\GITREPOS\UNREAL-ENGINE-CPLUSPLUS-DEVELOPER\SECTION02\SECTION02\HELLO\HELLO.CPP
