^C:\Users\jarkk\GITREPOS\unreal-engine-cplusplus-developer\section02\Section02\Hello\Hello.vcxproj
C:\Users\jarkk\GITREPOS\unreal-engine-cplusplus-developer\section02\Section02\x64\Release\Hello.ipdb
C:\Users\jarkk\GITREPOS\unreal-engine-cplusplus-developer\section02\Section02\x64\Release\Hello.iobj
